{
	"_id": "S0JKHkv8XKDiXTos",
	"_key": "!items!S0JKHkv8XKDiXTos",
	"effects": [
	],
	"folder": null,
	"img": "systems/conan2d20/assets/icons/compendiums/icon-talent-books.png",
	"name": "Gunderland",
	"system": {
		"description": {
			"source": {
				"book": "coreRulebook",
				"page": 14
			},
			"value": ""
		},
		"language": {
			"choices": [
				"Compendium.conan2d20.languages-core.Item.NIW5TQBcmNLd3aUY"
			]
		},
		"talent": {
			"choices": [
				"Compendium.conan2d20.talents-core.Item.6f1W0wMoxTidRTwf"
			]
		}
	},
	"type": "homeland"
}
