{
	"_id": "vZA0ciCboiSpHDNm",
	"_key": "!items!vZA0ciCboiSpHDNm",
	"effects": [
	],
	"folder": null,
	"img": "systems/conan2d20/assets/icons/compendiums/icon-talent-books.png",
	"name": "Khauran",
	"system": {
		"description": {
			"source": {
				"book": "coreRulebook",
				"page": 14
			},
			"value": ""
		},
		"language": {
			"choices": [
				"Compendium.conan2d20.languages-core.Item.n8d4HHt9g3Af1FyD",
				"Compendium.conan2d20.languages-core.Item.ygPt9Ni2q3Hv37Np"
			]
		},
		"talent": {
			"choices": [
				"Compendium.conan2d20.talents-core.Item.csanmAFIfuGsZ856"
			]
		}
	},
	"type": "homeland"
}
