{
	"_id": "Mh2Sy9UzCcRk2urF",
	"_key": "!items!Mh2Sy9UzCcRk2urF",
	"effects": [
	],
	"folder": null,
	"img": "systems/conan2d20/assets/icons/compendiums/icon-talent-books.png",
	"name": "Khitai",
	"system": {
		"description": {
			"source": {
				"book": "coreRulebook",
				"page": 14
			},
			"value": ""
		},
		"language": {
			"choices": [
				"Compendium.conan2d20.languages-core.Item.nHeFU2jGm4lT066s"
			]
		},
		"talent": {
			"choices": [
				"Compendium.conan2d20.talents-core.Item.8VEUMv1tkQfyVPZr"
			]
		}
	},
	"type": "homeland"
}
