{
	"_id": "Xqu9trP3OOPK3Cfl",
	"_key": "!tables.results!G0YIVWOwvja5F9GD.Xqu9trP3OOPK3Cfl",
	"documentCollection": "conan2d20.castes-core",
	"documentId": "kOqvJzCJH8fu2ERm",
	"drawn": false,
	"img": "systems/conan2d20/assets/icons/compendiums/icon-talent-books.png",
	"range": [
		15,
		16
	],
	"text": "Petty Nobility",
	"type": "pack",
	"weight": 1
}
