{
	"_id": "6G9DCAcj7iNP5il3",
	"_key": "!tables.results!Q3is3eUj44Oefoht.6G9DCAcj7iNP5il3",
	"documentCollection": "",
	"documentId": null,
	"drawn": false,
	"img": "icons/svg/d20-black.svg",
	"range": [
		3,
		5
	],
	"text": "Right Arm",
	"type": "text",
	"weight": 1
}
