{
	"_id": "6Xn2Il11ePMXMpq7",
	"_key": "!tables.results!JWwWvXTzc3hwt6Nh.6Xn2Il11ePMXMpq7",
	"documentCollection": "",
	"documentId": null,
	"drawn": false,
	"img": "icons/svg/d20-black.svg",
	"range": [
		19,
		19
	],
	"text": "Inexplicable Tatoo",
	"type": "text",
	"weight": 1
}
