{
	"_id": "ZmfZwHZJgH6tLmpY",
	"_key": "!tables.results!G0YIVWOwvja5F9GD.ZmfZwHZJgH6tLmpY",
	"documentCollection": "conan2d20.castes-core",
	"documentId": "lE7COdoAWmBu7wg2",
	"drawn": false,
	"img": "systems/conan2d20/assets/icons/compendiums/icon-talent-books.png",
	"range": [
		7,
		8
	],
	"text": "Herder",
	"type": "pack",
	"weight": 1
}
