{
	"_id": "8LqWWYGLwUvm5JEb",
	"_key": "!tables.results!Fw6tQNe96ETFnLON.8LqWWYGLwUvm5JEb",
	"documentCollection": "conan2d20.archetypes-core",
	"documentId": "ybTQAdVtkNZ62XKg",
	"drawn": false,
	"img": "systems/conan2d20/assets/icons/compendiums/icon-talent-books.png",
	"range": [
		7,
		8
	],
	"text": "Noble Warrior",
	"type": "pack",
	"weight": 1
}
