{
	"_id": "PQ6gWuRACnmsn5Eq",
	"_key": "!tables.results!Fw6tQNe96ETFnLON.PQ6gWuRACnmsn5Eq",
	"documentCollection": "conan2d20.archetypes-core",
	"documentId": "W9mTa9rST5FanEiW",
	"drawn": false,
	"img": "systems/conan2d20/assets/icons/compendiums/icon-talent-books.png",
	"range": [
		17,
		18
	],
	"text": "Scoundrel",
	"type": "pack",
	"weight": 1
}
