{
	"_id": "ZJeYEMBZbUvSbqBj",
	"_key": "!tables.results!ZL3OYfGvBVtE8l1m.ZJeYEMBZbUvSbqBj",
	"documentCollection": "conan2d20.war-stories-core",
	"documentId": "w2gS6k4HZEHfFDe3",
	"drawn": false,
	"img": "systems/conan2d20/assets/icons/compendiums/icon-talent-books.png",
	"range": [
		1,
		2
	],
	"text": "Defeated a Savage Beast",
	"type": "pack",
	"weight": 1
}
