{
	"_id": "3vJ3p9PduHbX6zfX",
	"_key": "!tables.results!zDhqdzO1dZ49IcyN.3vJ3p9PduHbX6zfX",
	"documentCollection": "conan2d20.stories-core",
	"documentId": "BWuIRVGnl92AHm4m",
	"drawn": false,
	"img": "systems/conan2d20/assets/icons/compendiums/icon-talent-books.png",
	"range": [
		1,
		3
	],
	"text": "Decisive Victory",
	"type": "pack",
	"weight": 1
}
