{
	"_id": "2NdL12UHICIz7jrr",
	"_key": "!tables.results!0IUSE8dYrQlDCXFE.2NdL12UHICIz7jrr",
	"documentCollection": "conan2d20.attribute-aspects-core",
	"documentId": "92RuK05y0WymF4rE",
	"drawn": false,
	"img": "systems/conan2d20/assets/icons/compendiums/icon-talent-books.png",
	"range": [
		13,
		14
	],
	"text": "Brave or Foolhardy",
	"type": "pack",
	"weight": 1
}
