{
	"_id": "xOR7MyMa2hhTSZKC",
	"_key": "!tables.results!4p71ETnB7jgD2dUE.xOR7MyMa2hhTSZKC",
	"documentCollection": "",
	"documentId": null,
	"drawn": false,
	"img": "icons/svg/d20-black.svg",
	"range": [
		1,
		10
	],
	"text": "Rider",
	"type": "text",
	"weight": 1
}
