{
	"_id": "Qz6ov4A86T225kND",
	"_key": "!tables.results!YJdJaSdOp5mK31Dv.Qz6ov4A86T225kND",
	"documentCollection": "conan2d20.homelands-core",
	"documentId": "npBtxClxhjNBfzLa",
	"drawn": false,
	"img": "systems/conan2d20/assets/icons/compendiums/icon-talent-books.png",
	"range": [
		17,
		17
	],
	"text": "Ophir",
	"type": "pack",
	"weight": 1
}
