{
	"_id": "liAIWt2cTZAXYujr",
	"_key": "!tables.results!YJdJaSdOp5mK31Dv.liAIWt2cTZAXYujr",
	"documentCollection": "conan2d20.homelands-core",
	"documentId": "T3MnWRTiv0Rrob8v",
	"drawn": false,
	"img": "systems/conan2d20/assets/icons/compendiums/icon-talent-books.png",
	"range": [
		33,
		34
	],
	"text": "Turan",
	"type": "pack",
	"weight": 1
}
