{
	"_id": "ZBxnx8Bco3TKkVRz",
	"_key": "!tables.results!Fw6tQNe96ETFnLON.ZBxnx8Bco3TKkVRz",
	"documentCollection": "conan2d20.archetypes-core",
	"documentId": "EW3lEMCpwfPCuNFP",
	"drawn": false,
	"img": "systems/conan2d20/assets/icons/compendiums/icon-talent-books.png",
	"range": [
		1,
		2
	],
	"text": "Archer",
	"type": "pack",
	"weight": 1
}
