{
	"_id": "BA4Y02bepxyQP9QN",
	"_key": "!tables.results!ntEykq0hgS8ezjio.BA4Y02bepxyQP9QN",
	"documentCollection": "",
	"documentId": null,
	"drawn": false,
	"img": "icons/svg/d20-black.svg",
	"range": [
		1,
		2
	],
	"text": "Animal",
	"type": "text",
	"weight": 1
}
