{
	"_id": "zAPc68Fg1JuusAZn",
	"_key": "!tables.results!I7v8tqDUs0F90TCE.zAPc68Fg1JuusAZn",
	"documentCollection": "conan2d20.stories-core",
	"documentId": "Q6PiKKErCgJxHKC9",
	"drawn": false,
	"img": "systems/conan2d20/assets/icons/compendiums/icon-talent-books.png",
	"range": [
		1,
		3
	],
	"text": "Guest of a Greater Name",
	"type": "pack",
	"weight": 1
}
