{
	"_id": "1Fc7GP37ZlL3nKwz",
	"_key": "!tables.results!JWwWvXTzc3hwt6Nh.1Fc7GP37ZlL3nKwz",
	"documentCollection": "",
	"documentId": null,
	"drawn": false,
	"img": "icons/svg/d20-black.svg",
	"range": [
		8,
		8
	],
	"text": "Mistaken Identify",
	"type": "text",
	"weight": 1
}
