{
	"_id": "QDMPBBvoJtnpvk6t",
	"_key": "!tables.results!YJdJaSdOp5mK31Dv.QDMPBBvoJtnpvk6t",
	"documentCollection": "conan2d20.homelands-core",
	"documentId": "x6io2rde7B2K1o1B",
	"drawn": false,
	"img": "systems/conan2d20/assets/icons/compendiums/icon-talent-books.png",
	"range": [
		11,
		11
	],
	"text": "Kush",
	"type": "pack",
	"weight": 1
}
