{
	"_id": "EIUL9H1y5rj7T6th",
	"_key": "!tables.results!YJdJaSdOp5mK31Dv.EIUL9H1y5rj7T6th",
	"documentCollection": "conan2d20.homelands-core",
	"documentId": "Dbti76tyRt8Ml1zv",
	"drawn": false,
	"img": "systems/conan2d20/assets/icons/compendiums/icon-talent-books.png",
	"range": [
		27,
		27
	],
	"text": "Stygia",
	"type": "pack",
	"weight": 1
}
