{
	"_id": "BJPboIVjLnZT0l95",
	"_key": "!tables.results!ntEykq0hgS8ezjio.BJPboIVjLnZT0l95",
	"documentCollection": "",
	"documentId": null,
	"drawn": false,
	"img": "icons/svg/d20-black.svg",
	"range": [
		3,
		4
	],
	"text": "Vehicle",
	"type": "text",
	"weight": 1
}
