{
	"_id": "adVREo1M6LVCBAN1",
	"_key": "!tables.results!0IUSE8dYrQlDCXFE.adVREo1M6LVCBAN1",
	"documentCollection": "conan2d20.attribute-aspects-core",
	"documentId": "jagqzNyaHKUvNJul",
	"drawn": false,
	"img": "systems/conan2d20/assets/icons/compendiums/icon-talent-books.png",
	"range": [
		15,
		16
	],
	"text": "Dextrous",
	"type": "pack",
	"weight": 1
}
