{
	"_id": "HKlEnZ04fGvU0ImN",
	"_key": "!tables.results!I7v8tqDUs0F90TCE.HKlEnZ04fGvU0ImN",
	"documentCollection": "conan2d20.stories-core",
	"documentId": "cYxNDX3psDpZeVCc",
	"drawn": false,
	"img": "systems/conan2d20/assets/icons/compendiums/icon-talent-books.png",
	"range": [
		4,
		6
	],
	"text": "Guest of a Rival",
	"type": "pack",
	"weight": 1
}
