{
	"_id": "G0YIVWOwvja5F9GD",
	"_key": "!tables!G0YIVWOwvja5F9GD",
	"description": "",
	"displayRoll": true,
	"folder": "3J2k1zpF9wgy9leY",
	"formula": "1d20",
	"img": "icons/svg/d20-grey.svg",
	"name": "Caste",
	"replacement": true,
	"results": [
		"EGdhPqTEGTDkhThG",
		"zs08n2iaf9o6sbyN",
		"IaqZyUbOQkn1mwTF",
		"ZmfZwHZJgH6tLmpY",
		"Icc6I8fThkhfZWGA",
		"9JbKPXbIIk8BkUbX",
		"Xqu9trP3OOPK3Cfl",
		"GrbgwmfINibiuDE1",
		"eRw6gGyxv6JHvD5P"
	]
}
