{
	"_id": "u7ap5vPP8ClyKzr5",
	"_key": "!tables!u7ap5vPP8ClyKzr5",
	"description": "",
	"displayRoll": true,
	"folder": "3J2k1zpF9wgy9leY",
	"formula": "1d20",
	"img": "icons/svg/d20-grey.svg",
	"name": "Story (Escaped Serf/Slave Stories)",
	"replacement": true,
	"results": [
		"cIXIpSmxmi0U8eKW",
		"yisgfHIFnlB2ZzEP",
		"L0ghpECRtifyzEDo",
		"v5RCH6TRRPV6AgZf",
		"88YGrpskUsgpx85W",
		"jcM3HG2hS4p2aLn9"
	]
}
