{
	"_id": "ZL3OYfGvBVtE8l1m",
	"_key": "!tables!ZL3OYfGvBVtE8l1m",
	"description": "",
	"displayRoll": true,
	"folder": "3J2k1zpF9wgy9leY",
	"formula": "1d20",
	"img": "icons/svg/d20-grey.svg",
	"name": "War Story",
	"replacement": true,
	"results": [
		"ZJeYEMBZbUvSbqBj",
		"XeT73DGnnQtKFFjb",
		"5UyqYj64D9nJzZP3",
		"HaV2UysPdFb2hDCD",
		"Q7VZJKZjERBEULlt",
		"BMk9a0NFKtjxeTEn",
		"HKzSmJ8ZEB9hyWYX",
		"vTy6VYd913ZqrKkG",
		"cmuYDgs891OYP7yN",
		"bUDAwW5HsWEYUDpP"
	]
}
