{
	"_id": "2W5vHIuWD6c2fjkd",
	"_key": "!items!2W5vHIuWD6c2fjkd",
	"effects": [
	],
	"folder": null,
	"img": "systems/conan2d20/assets/icons/compendiums/icon-talent-books.png",
	"name": "Zembabwein",
	"system": {
		"description": {
			"source": {
				"book": "coreRulebook",
				"page": 14
			},
			"value": ""
		}
	},
	"type": "language"
}
