{
	"_id": "bG9EFmMC9BQNq0Dc",
	"_key": "!items!bG9EFmMC9BQNq0Dc",
	"effects": [
	],
	"folder": "chGS1E3AQ37zXS5o",
	"img": "systems/conan2d20/assets/icons/compendiums/icon-talent-books.png",
	"name": "A Little to Ease the Pain",
	"system": {
		"cost": 200,
		"description": {
			"source": {
				"book": "coreRulebook",
				"page": 67
			},
			"value": "<p>In your past you worked with extremely limited resources, and have learned to take full advantage of them when available.</p>\n<p>When using medicine from a healer&rsquo;s bag, each load adds two d20s to the Healing test, instead of the usual one, though the normal limit of three bonus d20s still applies.</p>\n<p>In addition, if you have access to narcotics or alcohol you can make a Daunting (D3) Healing test to convert a dose of either into a dose of medicine.</p>"
		},
		"linkedSkill": "hea",
		"rank": {
			"max": 1,
			"value": 0
		},
		"requirements": [
			{
				"min": 1,
				"talents": [
					{
						"rank": 1,
						"uuid": "Compendium.conan2d20.talents-core.Item.Rsv88ooTXekyuwFg"
					}
				],
				"type": "talent"
			}
		],
		"talentType": "skill",
		"tree": ""
	},
	"type": "talent"
}
