{
	"_id": "ubSUUlToF9g2zifJ",
	"_key": "!items!ubSUUlToF9g2zifJ",
	"effects": [
	],
	"folder": "SA5kOvw2TmMTEsH6",
	"img": "systems/conan2d20/assets/icons/compendiums/icon-talent-books.png",
	"name": "Alchemist",
	"system": {
		"cost": 200,
		"description": {
			"source": {
				"book": "coreRulebook",
				"page": 58
			},
			"value": "<p>You may re-roll one d20 when attempting an Alchemy test, but you must accept the new result.</p>\n<p>With this talent, you can also substitute Alchemy for ranged weapons when using an alchemical weapon.</p>"
		},
		"linkedSkill": "alc",
		"rank": {
			"max": 1,
			"value": 0
		},
		"requirements": [
			{
				"skill": "alc",
				"type": "expertise",
				"value": 1
			}
		],
		"talentType": "skill",
		"tree": ""
	},
	"type": "talent"
}
