{
	"_id": "82ttQnF2pKh7tWKP",
	"_key": "!items!82ttQnF2pKh7tWKP",
	"effects": [
	],
	"folder": "oWdoS7D7rxwGfPpk",
	"img": "systems/conan2d20/assets/icons/compendiums/icon-talent-books.png",
	"name": "Animal Healer",
	"system": {
		"cost": 400,
		"description": {
			"source": {
				"book": "coreRulebook",
				"page": 59
			},
			"value": "<p>Any time you are called upon to make a Healing test upon an animal, you may instead substitute your Animal Handling skill.</p>\n<p>You may also substitute your Animal Handling skill for Healing tests upon humans, but you must increase the Difficulty of any such tests by one step.</p>"
		},
		"linkedSkill": "ani",
		"rank": {
			"max": 1,
			"value": 0
		},
		"requirements": [
			{
				"skill": "ani",
				"type": "expertise",
				"value": 2
			},
			{
				"min": 1,
				"talents": [
					{
						"rank": 1,
						"uuid": "Compendium.conan2d20.talents-core.Item.GEduD3itFWSg5g2y"
					}
				],
				"type": "talent"
			}
		],
		"talentType": "skill",
		"tree": ""
	},
	"type": "talent"
}
