{
	"_id": "RsWKNlQQe5JK2TRJ",
	"_key": "!items!RsWKNlQQe5JK2TRJ",
	"effects": [
	],
	"folder": "HpifO3vYFyMdjqoa",
	"img": "systems/conan2d20/assets/icons/compendiums/icon-talent-books.png",
	"name": "Artillerist",
	"system": {
		"cost": 200,
		"description": {
			"source": {
				"book": "coreRulebook",
				"page": 89
			},
			"value": "<p>You have learned how best to operate siege weaponry.</p>\n<p>When making an attack with a siege weapon, you may re-roll a number of damage dice equal to the number of Warfare talents (and ranks in them) you have acquired. The results of these re-rolls must be accepted.</p>"
		},
		"linkedSkill": "war",
		"rank": {
			"max": 1,
			"value": 0
		},
		"requirements": [
			{
				"skill": "war",
				"type": "expertise",
				"value": 1
			},
			{
				"min": 1,
				"talents": [
					{
						"rank": 1,
						"uuid": "Compendium.conan2d20.talents-core.Item.wpMMEGzh2WfsWfBn"
					}
				],
				"type": "talent"
			}
		],
		"talentType": "skill",
		"tree": ""
	},
	"type": "talent"
}
