{
	"_id": "VYG2eLhMHjNpIIYc",
	"_key": "!items!VYG2eLhMHjNpIIYc",
	"effects": [
	],
	"folder": "HpifO3vYFyMdjqoa",
	"img": "systems/conan2d20/assets/icons/compendiums/icon-talent-books.png",
	"name": "Conqueror",
	"system": {
		"cost": 400,
		"description": {
			"source": {
				"book": "coreRulebook",
				"page": 90
			},
			"value": "<p>With this talent, you have learned how to bring your retinue (generated with the General talent, below) to bear with explosive force; any warrior in your retinue adds a bonus d20 to all Melee, Parry, Ranged Weapons, and Warfare tests.</p>\n<p>Warriors in your retinue no longer need to be within earshot to gain the benefit of your leadership.</p>\n<p>As with the General talent, this benefit does not apply to other player characters, even if they are under your control.</p>"
		},
		"linkedSkill": "war",
		"rank": {
			"max": 1,
			"value": 0
		},
		"requirements": [
			{
				"skill": "war",
				"type": "expertise",
				"value": 2
			},
			{
				"min": 1,
				"talents": [
					{
						"rank": 1,
						"uuid": "Compendium.conan2d20.talents-core.Item.JhK44GWsot4QQUN4"
					}
				],
				"type": "talent"
			}
		],
		"talentType": "skill",
		"tree": ""
	},
	"type": "talent"
}
