{
	"_id": "o9OQhEGaMkJ8CFLz",
	"_key": "!items!o9OQhEGaMkJ8CFLz",
	"effects": [
	],
	"folder": "3rgWXaVvqUeifkJ0",
	"img": "systems/conan2d20/assets/icons/compendiums/icon-talent-books.png",
	"name": "Curse",
	"system": {
		"cost": 1000,
		"description": {
			"source": {
				"book": "coreRulebook",
				"page": 167
			},
			"value": "<p><strong>You must permanently sacrifice 1 Fortune point</strong> to house a spell within a living creature, usually to inflict some negative effect or condition upon the desired subject of the spell. The resource cost for doing this is twenty times that of a regular petty enchantment.</p>\n<p>You must have a trigger that will activate the spell&rsquo;s effects, which may cost additional Momentum.</p>\n<p>The amount of Momentum should be determined by the gamemaster based on how subjective or narrow the focus of the trigger is. The more specific, the more expensive the Momentum cost should be, and the more general and outside human intervention, the less expensive the spell will be.</p>\n<p><em>For example, </em>&ldquo;When the moon turns full&rdquo;<em> is specific but is general and predictable, with no human intervention whatsoever, so it would cost no extra Momentum. A trigger such as </em>&ldquo;When the name Aktur Ashmal is spoken&rdquo;<em> would be an easily controllable event, and could cost as much as 3 additional Momentum.</em></p>\n<p>Once the curse&rsquo;s effects are complete or have otherwise passed, the spell is done.</p>"
		},
		"linkedSkill": "sor",
		"rank": {
			"max": 1,
			"value": 0
		},
		"requirements": [
			{
				"min": 1,
				"talents": [
					{
						"rank": 1,
						"uuid": "Compendium.conan2d20.talents-core.Item.3MmanaDjDT2LBnAI"
					}
				],
				"type": "talent"
			},
			{
				"min": 1,
				"talents": [
					{
						"rank": 1,
						"uuid": "Compendium.conan2d20.talents-core.Item.AB3QuGu7lBGNGPic"
					}
				],
				"type": "talent"
			}
		],
		"talentType": "skill",
		"tree": ""
	},
	"type": "talent"
}
