{
	"_id": "4gSfSYvgf3Fp0eLs",
	"_key": "!items!4gSfSYvgf3Fp0eLs",
	"effects": [
	],
	"folder": "SA5kOvw2TmMTEsH6",
	"img": "systems/conan2d20/assets/icons/compendiums/icon-talent-books.png",
	"name": "Dabbler",
	"system": {
		"cost": 200,
		"description": {
			"source": {
				"book": "coreRulebook",
				"page": 58
			},
			"value": "<p>Having studied many alchemical formulas, you are comfortable with making your own discoveries through experimentation.</p>\n<p>You are not restricted as to which petty enchantments you would make but doing so is very expensive.</p>\n<p>You must spend three times the number of reagents needed before making any alchemy test to build a petty enchantment for which you do not have the Master of Formulae talent.</p>"
		},
		"linkedSkill": "alc",
		"rank": {
			"max": 1,
			"value": 0
		},
		"requirements": [
			{
				"min": 1,
				"talents": [
					{
						"rank": 1,
						"uuid": "Compendium.conan2d20.talents-core.Item.ubSUUlToF9g2zifJ"
					}
				],
				"type": "talent"
			}
		],
		"talentType": "skill",
		"tree": ""
	},
	"type": "talent"
}
