{
	"_id": "hx29uVEPesEpr32h",
	"_key": "!items!hx29uVEPesEpr32h",
	"effects": [
	],
	"folder": "3rgWXaVvqUeifkJ0",
	"img": "systems/conan2d20/assets/icons/compendiums/icon-talent-books.png",
	"name": "Demon Slayer",
	"system": {
		"cost": 600,
		"description": {
			"source": {
				"book": "coreRulebook",
				"page": 84
			},
			"value": "<p>You have learned how to most effectively harm and kill unnatural beings.</p>\n<p>When using the Witch Hunter talent, you can spend 1 Momentum to add Vicious 1 to your weapons (or increase the Vicious quality by 1 if your weapon already has the quality) against any sorcerers and unnatural entities present in the scene.</p>"
		},
		"linkedSkill": "sor",
		"rank": {
			"max": 1,
			"value": 0
		},
		"requirements": [
			{
				"min": 1,
				"talents": [
					{
						"rank": 1,
						"uuid": "Compendium.conan2d20.talents-core.Item.WmtjAPOIEngvMO8k"
					}
				],
				"type": "talent"
			}
		],
		"talentType": "skill",
		"tree": ""
	},
	"type": "talent"
}
