{
	"_id": "q360OrOpwJrliZMD",
	"_key": "!items!q360OrOpwJrliZMD",
	"effects": [
	],
	"folder": "MQByaASvTyDpeu6V",
	"img": "systems/conan2d20/assets/icons/compendiums/icon-talent-books.png",
	"name": "Easy Money",
	"system": {
		"cost": 200,
		"description": {
			"source": {
				"book": "coreRulebook",
				"page": 88
			},
			"value": "<p>You are particularly astute at recognising profitable opportunities such as picking pockets, short cons, and other minor crimes.</p>\n<p>You may substitute your Thievery skill for Observation on any tests that are related to committing a crime.</p>\n<p>In addition, whenever you steal or otherwise obtain money by illicit means, you may add 3 to Doom in order to gain 1 additional Gold from that particular crime (and only one additional Gold).</p>"
		},
		"linkedSkill": "thi",
		"rank": {
			"max": 1,
			"value": 0
		},
		"requirements": [
			{
				"min": 1,
				"talents": [
					{
						"rank": 1,
						"uuid": "Compendium.conan2d20.talents-core.Item.W4QCBgcahDElkk5z"
					}
				],
				"type": "talent"
			}
		],
		"talentType": "skill",
		"tree": ""
	},
	"type": "talent"
}
