{
	"_id": "EszyNzhaPyUvPDo1",
	"_key": "!items!EszyNzhaPyUvPDo1",
	"effects": [
	],
	"folder": "x7NotI3tN22SSKtc",
	"img": "systems/conan2d20/assets/icons/compendiums/icon-talent-books.png",
	"name": "Healthy Superstition",
	"system": {
		"cost": 200,
		"description": {
			"source": {
				"book": "coreRulebook",
				"page": 65
			},
			"value": "<p>Some superstitions are just common sense, and you hold many of those beliefs. This superstition allows you to stand firm in the face of the unnatural, even if doing so would seem foolhardy. When facing supernatural threats, you are empowered by this belief.</p>\n<p>When a supernatural threat manifests, you may spend one Momentum (Immediate, Repeatable) to immediately gain 1[CD] Morale Soak, which lasts until the end of the current scene.</p>"
		},
		"linkedSkill": "dis",
		"rank": {
			"max": 1,
			"value": 0
		},
		"requirements": [
			{
				"min": 1,
				"talents": [
					{
						"rank": 1,
						"uuid": "Compendium.conan2d20.talents-core.Item.eMVPfww9Ni80fsve"
					}
				],
				"type": "talent"
			}
		],
		"talentType": "skill",
		"tree": ""
	},
	"type": "talent"
}
