{
	"_id": "9nC7Mrqh6d7p9bEK",
	"_key": "!items!9nC7Mrqh6d7p9bEK",
	"effects": [
	],
	"folder": "liAXQXMhPewCasM3",
	"img": "systems/conan2d20/assets/icons/compendiums/icon-talent-books.png",
	"name": "Honest Corruption",
	"system": {
		"cost": 0,
		"description": {
			"source": {
				"book": "coreRulebook",
				"page": 15
			},
			"value": "<p>In a land of corrupt merchants and honest thieves, you have gained a sixth sense about those who are likely to betray you.</p>\n<p>When interacting with a non-player character for the first time, you can make a free Average (D2) Thievery or Counsel test to gain a general feel for the trustworthiness of the non-player character.</p>"
		},
		"linkedSkill": "",
		"rank": {
			"max": 1,
			"value": 0
		},
		"requirements": [
		],
		"talentType": "homeland",
		"tree": ""
	},
	"type": "talent"
}
