{
	"_id": "sCpTLFIqogPgD50N",
	"_key": "!items!sCpTLFIqogPgD50N",
	"effects": [
	],
	"folder": "wMcG0pbChaNaDEfR",
	"img": "systems/conan2d20/assets/icons/compendiums/icon-talent-books.png",
	"name": "Just a Scratch",
	"system": {
		"cost": 400,
		"description": {
			"source": {
				"book": "coreRulebook",
				"page": 80
			},
			"value": "<p>You have a knack for shrugging off injuries that would fell a lesser mortal. The amount of physical damage needed to inflict a Wound is increased by 1 per rank of Just a Scratch. For example, if you have Just a Scratch 1, you will suffer a Wound if 6 or more points of damage are inflicted, rather than the normal total of 5 or more.</p>"
		},
		"linkedSkill": "res",
		"rank": {
			"max": 2,
			"value": 0
		},
		"requirements": [
			{
				"min": 1,
				"talents": [
					{
						"rank": 1,
						"uuid": "Compendium.conan2d20.talents-core.Item.ftGFVd4Cw3qqkBKc"
					}
				],
				"type": "talent"
			}
		],
		"talentType": "skill",
		"tree": ""
	},
	"type": "talent"
}
