{
	"_id": "g22tl28OdCQAxAko",
	"_key": "!items!g22tl28OdCQAxAko",
	"effects": [
	],
	"folder": "zf87bNWQgmSlAgnJ",
	"img": "systems/conan2d20/assets/icons/compendiums/icon-talent-books.png",
	"name": "Labor of Love",
	"system": {
		"cost": 400,
		"description": {
			"source": {
				"book": "coreRulebook",
				"page": 64
			},
			"value": "<p>Master Smiths can create truly beautiful works.</p>\n<p>When you have access to your tools and create a labor of love, you can use any bonus Momentum granted by Master Smith to increase the attractiveness of your work. This offers little functional difference to the finished item itself, but will increase your wealth and influence.</p>\n<p>With Labor of Love, you can use Craft in place of Society tests and gain 1 extra level of Renown for every rank of Master Smith.</p>"
		},
		"linkedSkill": "cra",
		"rank": {
			"max": 1,
			"value": 0
		},
		"requirements": [
			{
				"min": 1,
				"talents": [
					{
						"rank": 1,
						"uuid": "Compendium.conan2d20.talents-core.Item.s5TdPnWK6YkARy9j"
					}
				],
				"type": "talent"
			}
		],
		"talentType": "skill",
		"tree": ""
	},
	"type": "talent"
}
