{
	"_id": "MWoWA7dw5mW2FjLq",
	"_key": "!items!MWoWA7dw5mW2FjLq",
	"effects": [
	],
	"folder": "lPOY89mWhJl696Gl",
	"img": "systems/conan2d20/assets/icons/compendiums/icon-talent-books.png",
	"name": "Lightning Reflexes",
	"system": {
		"cost": 400,
		"description": {
			"source": {
				"book": "coreRulebook",
				"page": 56
			},
			"value": "<p>You have a natural sense for when your life might be endangered.</p>\n<p>When involved in a struggle to resist being surprised, you gain 2 bonus Momentum.</p>"
		},
		"linkedSkill": "acr",
		"rank": {
			"max": 1,
			"value": 0
		},
		"requirements": [
			{
				"skill": "acr",
				"type": "expertise",
				"value": 2
			},
			{
				"min": 1,
				"talents": [
					{
						"rank": 1,
						"uuid": "Compendium.conan2d20.talents-core.Item.qwn5A6F4hbmqpE0p"
					}
				],
				"type": "talent"
			}
		],
		"talentType": "skill",
		"tree": ""
	},
	"type": "talent"
}
