{
	"_id": "Xem7zKy6NV0XfAK9",
	"_key": "!items!Xem7zKy6NV0XfAK9",
	"effects": [
	],
	"folder": "SA5kOvw2TmMTEsH6",
	"img": "systems/conan2d20/assets/icons/compendiums/icon-talent-books.png",
	"name": "Master of Formulae",
	"system": {
		"cost": 200,
		"description": {
			"source": {
				"book": "coreRulebook",
				"page": 58
			},
			"value": "<p>Most alchemists work extensively with a specific formula, which becomes second nature. More exacting measures become the standard.</p>\n<p>When selecting this talent, you must also select a specific type of petty enchantment: blasting powder, lotus pollen, etc.</p>\n<p>When using this petty enchantment, you may attempt higher Difficulty tests to increase the power of the particular enchantment.</p>"
		},
		"linkedSkill": "alc",
		"rank": {
			"max": 1,
			"value": 0
		},
		"requirements": [
			{
				"min": 1,
				"talents": [
					{
						"rank": 1,
						"uuid": "Compendium.conan2d20.talents-core.Item.ubSUUlToF9g2zifJ"
					},
					{
						"rank": 1,
						"uuid": "Compendium.conan2d20.talents-core.Item.kgHMARaSPBpQKn2Q"
					}
				],
				"type": "talent"
			}
		],
		"talentType": "skill",
		"tree": ""
	},
	"type": "talent"
}
