{
	"_id": "kbrboTQOOGSci2P1",
	"_key": "!items!kbrboTQOOGSci2P1",
	"effects": [
	],
	"folder": "MQByaASvTyDpeu6V",
	"img": "systems/conan2d20/assets/icons/compendiums/icon-talent-books.png",
	"name": "Master Thief",
	"system": {
		"cost": 200,
		"description": {
			"source": {
				"book": "coreRulebook",
				"page": 88
			},
			"value": "<p>You may re-roll one d20 when making a Thievery test, but you must accept the new result.</p>"
		},
		"linkedSkill": "thi",
		"rank": {
			"max": 1,
			"value": 0
		},
		"requirements": [
			{
				"min": 1,
				"talents": [
					{
						"rank": 1,
						"uuid": "Compendium.conan2d20.talents-core.Item.W4QCBgcahDElkk5z"
					}
				],
				"type": "talent"
			}
		],
		"talentType": "skill",
		"tree": ""
	},
	"type": "talent"
}
