{
	"_id": "3xS4iayMLxhmbtkZ",
	"_key": "!items!3xS4iayMLxhmbtkZ",
	"effects": [
	],
	"folder": "tTjeSVxus7akaRX6",
	"img": "systems/conan2d20/assets/icons/compendiums/icon-talent-books.png",
	"name": "Might",
	"system": {
		"cost": 200,
		"description": {
			"source": {
				"book": "coreRulebook",
				"page": 61
			},
			"value": "<p>You are able to perform feats of strength that seem at odds with your physique, due to a combination of training and expertise.</p>\n<p>On any test to lift or move an inanimate object, you may roll a number of bonus d20s equal to your ranks in Might, though the normal limit of three bonus d20s still applies.</p>"
		},
		"linkedSkill": "ath",
		"rank": {
			"max": 3,
			"value": 0
		},
		"requirements": [
			{
				"min": 1,
				"talents": [
					{
						"rank": 1,
						"uuid": "Compendium.conan2d20.talents-core.Item.MVM7MW32MhtZpFA0"
					}
				],
				"type": "talent"
			}
		],
		"talentType": "skill",
		"tree": ""
	},
	"type": "talent"
}
