{
	"_id": "9vcOKRdXmilZgIms",
	"_key": "!items!9vcOKRdXmilZgIms",
	"effects": [
	],
	"folder": "OlNnEo5XejUkyV5B",
	"img": "systems/conan2d20/assets/icons/compendiums/icon-talent-books.png",
	"name": "Remorseless",
	"system": {
		"cost": 400,
		"description": {
			"source": {
				"book": "coreRulebook",
				"page": 70
			},
			"value": "<p>You are willing and able to tell any lie that you feel is necessary to overcome an opponent&rsquo;s social defenses.</p>\n<p>When lying to an opponent, you gain one additional d20 per rank of Remorseless to your Persuade or Command test.</p>"
		},
		"linkedSkill": "per",
		"rank": {
			"max": 3,
			"value": 0
		},
		"requirements": [
			{
				"min": 1,
				"talents": [
					{
						"rank": 1,
						"uuid": "Compendium.conan2d20.talents-core.Item.CbxLtFXIvBPnQi9G"
					}
				],
				"type": "talent"
			}
		],
		"talentType": "skill",
		"tree": ""
	},
	"type": "talent"
}
