{
	"_id": "HHq0CU4dZmJXOgSq",
	"_key": "!items!HHq0CU4dZmJXOgSq",
	"effects": [
	],
	"folder": "mXs6VOAs4QkPnbJ0",
	"img": "systems/conan2d20/assets/icons/compendiums/icon-talent-books.png",
	"name": "Riposte",
	"system": {
		"cost": 200,
		"description": {
			"source": {
				"book": "coreRulebook",
				"page": 75
			},
			"value": "<p>The instant after an attack is the moment when the attacker is the most vulnerable.</p>\n<p>After successfully making a Defend Reaction using the Parry skill, you may immediately add 1 to Doom in order to make a Melee attack against the foe you just parried. Momentum remaining from the Parry Action may be carried over to this Melee attack.</p>"
		},
		"linkedSkill": "par",
		"rank": {
			"max": 1,
			"value": 0
		},
		"requirements": [
			{
				"min": 1,
				"talents": [
					{
						"rank": 1,
						"uuid": "Compendium.conan2d20.talents-core.Item.m8TsDGK3QQEKJIqs"
					}
				],
				"type": "talent"
			}
		],
		"talentType": "skill",
		"tree": ""
	},
	"type": "talent"
}
