{
	"_id": "ptTPseRXqnPF22vM",
	"_key": "!items!ptTPseRXqnPF22vM",
	"effects": [
	],
	"folder": "6fDmyrSLlv6gRz7Y",
	"img": "systems/conan2d20/assets/icons/compendiums/icon-talent-books.png",
	"name": "Survivor",
	"system": {
		"cost": 0,
		"description": {
			"source": {
				"book": "coreRulebook",
				"page": 21
			},
			"value": "<p>Deprivation has been all-too-common in your life. When you are deprived of obvious sources of food and water, you reduce the Difficulty of Survival tests by one. This may reduce tests to Simple (D0).</p>"
		},
		"linkedSkill": "",
		"rank": {
			"max": 1,
			"value": 0
		},
		"requirements": [
		],
		"talentType": "caste",
		"tree": ""
	},
	"type": "talent"
}
