{
	"_id": "NUL0xM2uvtUANMJv",
	"_key": "!items!NUL0xM2uvtUANMJv",
	"effects": [
	],
	"folder": "ngezzNzMSvkpW0Fi",
	"img": "systems/conan2d20/assets/icons/compendiums/icon-spells.png",
	"name": "Commune with the Wild",
	"system": {
		"consume": {
			"amount": null,
			"target": null,
			"type": ""
		},
		"cost": "undefined",
		"description": {
			"source": {
				"book": "coreRulebook",
				"page": 175
			},
			"value": "<p><p>By speaking the language of those who remember, you can command beasts to attend you and act in your stead. These beasts may seem to appear from out of nowhere, but the spell merely reaches out to the nearest beasts and bids them to attend with great haste and urgency. It is a very rare environment that has no suitable allies for summoning, but in situations where there is a noticeable absence of wildlife the gamemaster may increase the Difficulty of the spell or delay the attendance of the animals until they can reasonably appear.</p><p>Unless otherwise stated, Animal Handling must be used to control the beasts once summoned. If successful, a natural animal roughly equivalent to a wolf or snake arrives to serve the caster, though the environment and the sorcerer’s own nature should guide the gamemaster’s choice of what appears. See the Wild Beasts section of Chapter Ten: Encounters for more information on these creatures.</p><p>Unless you pay the Momentum for a beast to stay, the beast will arrive, act, and leave during your turn.</p></p>"
		},
		"difficulty": {
			"includes": "",
			"value": "1"
		},
		"duration": "1 scene per Momentum",
		"effects": {
			"alternative": [
			],
			"momentum": [
			]
		},
		"notes": "",
		"spellLevel": 1,
		"uses": {
			"max": "",
			"value": ""
		}
	},
	"type": "spell"
}
