{
	"_id": "PJRkBS172L1z9bBM",
	"_key": "!items!PJRkBS172L1z9bBM",
	"effects": [
	],
	"folder": "ngezzNzMSvkpW0Fi",
	"img": "systems/conan2d20/assets/icons/compendiums/icon-spells.png",
	"name": "Form of a Beast",
	"system": {
		"consume": {
			"amount": null,
			"target": null,
			"type": ""
		},
		"cost": "undefined",
		"description": {
			"source": {
				"book": "coreRulebook",
				"page": 179
			},
			"value": "<p><p>The spell allows you to transform into a single chosen animal (not including man or ape) gaining a Natural attack of 4§. Creatures between one-half to one-and-a-half times your size (a dog or bear for instance) are considered to have a Difficulty of Challenging (D2). Creatures greater or smaller than this are Daunting (D3). This transformation is generally cosmetic, with the size change as appropriate but gaining no powers unless Momentum is spent. Transformations are dangerous — should you suffer one or more Traumas in this form, you are likely to become more bestial or forget your human origin  altogether.</p></p>"
		},
		"difficulty": {
			"includes": "",
			"value": "1"
		},
		"duration": "1 resolve per combat round or non-combat scene.",
		"effects": {
			"alternative": [
			],
			"momentum": [
			]
		},
		"notes": "",
		"spellLevel": 1,
		"uses": {
			"max": "",
			"value": ""
		}
	},
	"type": "spell"
}
