{
	"_id": "xzGySXEoNKAu8i75",
	"_key": "!items!xzGySXEoNKAu8i75",
	"effects": [
	],
	"folder": "83q1FwWiJeSYAxFl",
	"img": "systems/conan2d20/assets/icons/compendiums/icon-enchantment.png",
	"name": "Lotus Pollen",
	"system": {
		"consume": {
			"amount": null,
			"target": null,
			"type": ""
		},
		"damage": {
			"dice": 1,
			"hitLocation": [
			],
			"type": "physical"
		},
		"description": {
			"source": {
				"book": "coreRulebook",
				"page": 167
			},
			"value": "<p><p>Lotus pollen is a strong natural plant derivative with a variety of effects depending on the specific plant and the way that the pollen is prepared. Once alchemists are aware of the effects of a particular plant and the vehicle for achieving the effect, they can easily prepare raw plants into the infamous venoms and narcotics popular with assassins and lotus dreamers alike.</p></p>"
		},
		"difficulty": "0",
		"effects": {
			"alternative": [
			],
			"momentum": [
			],
			"value": [
			]
		},
		"enchantmentType": "blindingPowder",
		"traits": {
		},
		"uses": {
			"max": "",
			"value": null
		}
	},
	"type": "enchantment"
}
