{
	"_id": "exqDvhFUUZKwQ7Ei",
	"_key": "!items!exqDvhFUUZKwQ7Ei",
	"effects": [
	],
	"folder": null,
	"img": "systems/conan2d20/assets/icons/compendiums/icon-weapon.png",
	"name": "Unarmed/Improvised (Melee)",
	"system": {
		"availability": 1,
		"broken": false,
		"cost": 0,
		"crew": 0,
		"damage": {
			"dice": 2,
			"type": "physical"
		},
		"description": {
			"source": {
				"book": "coreRulebook",
				"page": 124
			},
			"value": "<p><span class=\"fontstyle0\">When unarmed, either due to combat beginning unexpectedly or losing one&rsquo;s weapons, player characters may want to improvise weapons from their immediate surroundings. The basic form of attack &mdash; Melee and Ranged &mdash; is an improvised attack, covering unarmed strikes as well as whatever small objects come to hand, such as throwing small rocks or tankards. However, larger, heavier, or sharper improvised weapons require additional consideration.</span></p>\n<p><span class=\"fontstyle0\">Improvised weaponry is easy to come by, often snatched up from whatever is nearby. The basic&nbsp;</span><span class=\"fontstyle0\">Improvised Attack has a Reach of 1, 2</span><span class=\"fontstyle2\">[CD] </span><span class=\"fontstyle0\">damage, 1H, </span><span class=\"fontstyle0\">and has the Improvised, Stun, and Thrown Qualities, the latter representing small objects picked up and hurled. With the gamemaster&rsquo;s permission, a player character may add 1 or more points of Doom in order to establish a different improvised weapon. A weapon with the Qualities </span><span class=\"fontstyle0\">listed above costs 0 Doom; each additional [CD] </span><span class=\"fontstyle0\">of damage </span><span class=\"fontstyle0\">or additional Quality (or rank of a Quality) added increase the cost by 1 Doom. Removing Qualities or making the weapon two-handed instead of one-handed reduces the cost by 1 each, to a minimum of 0. The Improvised Quality cannot be removed.</span></p>\n<p><em><span class=\"fontstyle0\">For example, a broken bottle may replace the Stun Quality with Vicious 1, requiring 0 Doom be spent (adding one Quality, removing another). A barstool </span><span class=\"fontstyle0\">may increase the damage to 4[CD] </span><span class=\"fontstyle0\">but become two-handed, costing 1 Doom.</span></em></p>\n<p><span class=\"fontstyle0\">When determining what can be used as an improvised weapon, the gamemaster&rsquo;s ruling is final.</span></p>"
		},
		"encumbrance": 0,
		"equipped": true,
		"hideInInventory": true,
		"qualities": {
			"value": [
				{
					"exceptions": "",
					"label": "Improvised",
					"type": "improvised",
					"value": null
				},
				{
					"exceptions": "",
					"label": "Stun",
					"type": "stun",
					"value": null
				},
				{
					"exceptions": "",
					"label": "Thrown",
					"type": "thrown",
					"value": null
				}
			]
		},
		"quantity": 1,
		"range": 1,
		"shots": 1,
		"size": "oneHanded",
		"skillOverride": "",
		"stowedIn": "",
		"weaponType": "melee"
	},
	"type": "weapon"
}
