{
	"_id": "gUfIsCix9KFOAEN5",
	"_key": "!journal.pages!qdNfYE5VhebZzHpX.gUfIsCix9KFOAEN5",
	"image": {
	},
	"name": "Introduction",
	"src": null,
	"system": {
	},
	"text": {
		"content": "<p>This documentation is fairly sparse at the moment, but we aim to improve it over the coming few releases until it covers the basics of the Conan 2d20-specific features.</p>",
		"format": 1,
		"markdown": ""
	},
	"title": {
		"level": 1,
		"show": true
	},
	"type": "text",
	"video": {
		"controls": true,
		"volume": 0.5
	}
}
