{
	"_id": "BOhe4wxqbShA6mde",
	"_key": "!items!BOhe4wxqbShA6mde",
	"effects": [
	],
	"folder": null,
	"img": "systems/conan2d20/assets/icons/compendiums/icon-talent-books.png",
	"name": "Escaped Serf/Slave",
	"system": {
		"description": {
			"source": {
				"book": "coreRulebook",
				"page": 19
			},
			"value": "<p><span class=\"fontstyle0\">Whether from an open field or within the confines of the deepest mine, you were caught and forced into labor, a fate you despised. One day an opportunity presented itself, and you set yourself free. Now you look back only to see if your former masters are searching for you.</span></p>"
		},
		"skill": "sur",
		"socialStanding": 0,
		"story": {
			"choices": [
				"Compendium.conan2d20.stories-core.Item.B3E739vWwKXcrh3E",
				"Compendium.conan2d20.stories-core.Item.EKkn6CUFGzlWWQ6c",
				"Compendium.conan2d20.stories-core.Item.dzjRc71mIotmdK7N",
				"Compendium.conan2d20.stories-core.Item.0wNqID8Ven9Vm41z",
				"Compendium.conan2d20.stories-core.Item.N3Am27M0azy6nWuO",
				"Compendium.conan2d20.stories-core.Item.MisgjrWXPZv4Q6Jk"
			]
		},
		"talent": {
			"choices": [
				"Compendium.conan2d20.talents-core.Item.ujnPoktxk7cjbzlk",
				"Compendium.conan2d20.talents-core.Item.9IQs0iGzwzHBRbIH"
			]
		}
	},
	"type": "caste"
}
