{
	"_id": "aPUXrMe9UQ88RkgA",
	"_key": "!tables.results!F5QATnt1PbeDeyOW.aPUXrMe9UQ88RkgA",
	"documentCollection": "",
	"documentId": null,
	"drawn": false,
	"img": "icons/svg/d20-black.svg",
	"range": [
		5,
		6
	],
	"text": "A knight's...",
	"type": "text",
	"weight": 1
}
