{
	"_id": "8SLsrz8SXDdfGu0e",
	"_key": "!tables.results!yCJpM9jV87LKUCTu.8SLsrz8SXDdfGu0e",
	"documentCollection": "conan2d20.belongings-core",
	"documentId": "e3hNBHuweQVltj8m",
	"drawn": false,
	"img": "systems/conan2d20/assets/icons/compendiums/icon-weapon.png",
	"range": [
		5,
		6
	],
	"text": "Saber",
	"type": "pack",
	"weight": 1
}
