{
	"_id": "yeorpJZa5tZ1cuw3",
	"_key": "!tables.results!F5QATnt1PbeDeyOW.yeorpJZa5tZ1cuw3",
	"documentCollection": "",
	"documentId": null,
	"drawn": false,
	"img": "icons/svg/d20-black.svg",
	"range": [
		17,
		18
	],
	"text": "...still stained in places with the blood of those it has slain",
	"type": "text",
	"weight": 1
}
