{
	"_id": "J24jZ8rDbhDPVBy4",
	"_key": "!tables.results!yCJpM9jV87LKUCTu.J24jZ8rDbhDPVBy4",
	"documentCollection": "conan2d20.belongings-core",
	"documentId": "cnAnvbmg9WUmaTSU",
	"drawn": false,
	"img": "systems/conan2d20/assets/icons/compendiums/icon-weapon.png",
	"range": [
		1,
		2
	],
	"text": "Knife",
	"type": "pack",
	"weight": 1
}
