{
	"_id": "O4Zeh8mzQySa30ij",
	"_key": "!tables.results!TTZgxRMUyBI2X1jB.O4Zeh8mzQySa30ij",
	"documentCollection": "conan2d20.personal-belongings-core",
	"documentId": "11BuOggb6mZ4IQGQ",
	"drawn": false,
	"img": "icons/svg/item-bag.svg",
	"range": [
		3,
		4
	],
	"text": "Simple Cloth Garment",
	"type": "pack",
	"weight": 1
}
