{
	"_id": "jpNf5jlY8PCKrgfz",
	"_key": "!tables.results!TTZgxRMUyBI2X1jB.jpNf5jlY8PCKrgfz",
	"documentCollection": "conan2d20.personal-belongings-core",
	"documentId": "RQ3itsRfuLREHfzf",
	"drawn": false,
	"img": "icons/svg/item-bag.svg",
	"range": [
		9,
		10
	],
	"text": "Furs and Pelts",
	"type": "pack",
	"weight": 1
}
