{
	"_id": "snUkupnzj7w8uCLM",
	"_key": "!tables.results!yCJpM9jV87LKUCTu.snUkupnzj7w8uCLM",
	"documentCollection": "conan2d20.belongings-core",
	"documentId": "ukCbMYSYGNj993br",
	"drawn": false,
	"img": "systems/conan2d20/assets/icons/compendiums/icon-weapon.png",
	"range": [
		15,
		16
	],
	"text": "Chain",
	"type": "pack",
	"weight": 1
}
