{
	"_id": "MsO6GWAH5jnflN6i",
	"_key": "!items!MsO6GWAH5jnflN6i",
	"effects": [
	],
	"folder": null,
	"img": "icons/svg/item-bag.svg",
	"name": "Ancient Jewelry",
	"system": {
		"availability": 0,
		"broken": false,
		"cost": 0,
		"description": {
			"source": {
				"book": "coreRulebook",
				"page": 45
			},
			"value": "<p>An ancient piece of jewelry, its surface covered in verdigris</p>"
		},
		"encumbrance": 0,
		"equipped": false,
		"hideInInventory": false,
		"quantity": 1,
		"stowedIn": ""
	},
	"type": "miscellaneous"
}
