{
	"_id": "pHZ7LC6yWxreYQ4j",
	"_key": "!items!pHZ7LC6yWxreYQ4j",
	"effects": [
	],
	"folder": null,
	"img": "icons/svg/item-bag.svg",
	"name": "Deerskin Leggings and Cloak",
	"system": {
		"availability": 0,
		"broken": false,
		"cost": 0,
		"description": {
			"source": {
				"book": "coreRulebook",
				"page": 45
			},
			"value": "<p>Deerskin leggings and a heavy hooded cloak</p>"
		},
		"encumbrance": 0,
		"equipped": false,
		"hideInInventory": false,
		"quantity": 1,
		"stowedIn": ""
	},
	"type": "miscellaneous"
}
