{
	"_id": "VVJhvz8hoVOsyTF9",
	"_key": "!items!VVJhvz8hoVOsyTF9",
	"effects": [
	],
	"folder": null,
	"img": "icons/svg/item-bag.svg",
	"name": "Long Dress or Robes",
	"system": {
		"availability": 0,
		"broken": false,
		"cost": 0,
		"description": {
			"source": {
				"book": "coreRulebook",
				"page": 45
			},
			"value": "<p>Long, flowing dress or robes, embroidered with coarse thread in traditional patterns</p>"
		},
		"encumbrance": 0,
		"equipped": false,
		"hideInInventory": false,
		"quantity": 1,
		"stowedIn": ""
	},
	"type": "miscellaneous"
}
