{
	"_id": "H4ZMeGSnM2fZLHau",
	"_key": "!items!H4ZMeGSnM2fZLHau",
	"effects": [
	],
	"folder": null,
	"img": "icons/svg/item-bag.svg",
	"name": "Sandals and Tunic",
	"system": {
		"availability": 0,
		"broken": false,
		"cost": 0,
		"description": {
			"source": {
				"book": "coreRulebook",
				"page": 45
			},
			"value": "<p>Sandals and tunic befitting a servant</p>"
		},
		"encumbrance": 0,
		"equipped": false,
		"hideInInventory": false,
		"quantity": 1,
		"stowedIn": ""
	},
	"type": "miscellaneous"
}
