{
	"_id": "B9aOeb4YvEbpE1wp",
	"_key": "!actors!B9aOeb4YvEbpE1wp",
	"effects": [
	],
	"folder": "lUwV60RxkQ5jCUDe",
	"img": "systems/conan2d20/assets/tokens/conan-default-actor-blue.webp",
	"items": [
	],
	"name": "Canoe",
	"prototypeToken": {
		"actorLink": false,
		"alpha": 1,
		"appendNumber": false,
		"bar1": {
			"attribute": "health.physical"
		},
		"bar2": {
			"attribute": "health.mental"
		},
		"detectionModes": [
		],
		"displayBars": 0,
		"displayName": 0,
		"disposition": 0,
		"flags": {
		},
		"height": 1,
		"hexagonalShape": 0,
		"light": {
			"alpha": 0.5,
			"angle": 360,
			"animation": {
				"intensity": 5,
				"reverse": false,
				"speed": 5,
				"type": null
			},
			"attenuation": 0.5,
			"bright": 0,
			"color": null,
			"coloration": 1,
			"contrast": 0,
			"darkness": {
				"max": 1,
				"min": 0
			},
			"dim": 0,
			"luminosity": 0.5,
			"negative": false,
			"priority": 0,
			"saturation": 0,
			"shadows": 0
		},
		"lockRotation": false,
		"name": "Canoe",
		"occludable": {
			"radius": 0
		},
		"prependAdjective": false,
		"randomImg": false,
		"ring": {
			"colors": {
				"background": null,
				"ring": null
			},
			"effects": 1,
			"enabled": false,
			"subject": {
				"scale": 1,
				"texture": null
			}
		},
		"rotation": 0,
		"sight": {
			"angle": 360,
			"attenuation": 0.1,
			"brightness": 0,
			"color": null,
			"contrast": 0,
			"enabled": false,
			"range": 0,
			"saturation": 0,
			"visionMode": "basic"
		},
		"texture": {
			"alphaThreshold": 0.75,
			"anchorX": 0.5,
			"anchorY": 0.5,
			"fit": "contain",
			"offsetX": 0,
			"offsetY": 0,
			"rotation": 0,
			"scaleX": 1,
			"scaleY": 1,
			"src": "systems/conan2d20/assets/tokens/conan-default-actor-blue.webp",
			"tint": "#ffffff"
		},
		"width": 1
	},
	"system": {
		"animals": 0,
		"armor": 0,
		"availability": 2,
		"cost": 5,
		"crew": {
			"max": 1,
			"value": 0
		},
		"details": {
			"biography": {
				"public": false,
				"value": "<p>These lightweight, narrow boats are designed to be paddled or poled, and can range in length from eight to 15 feet. Most are made by hollowing out a tree trunk, and some are sealed with tree sap or even bound in tightly-stretched leather. Larger canoes are treated as longboats. Canoes can be found anywhere there are people to make them, from the southernmost reaches of the Black Coast to the uttermost frozen northern shores of Vanaheim, and along any river bank where trees grow, though they are most common amongst barbaric or tribal people. Pictish and Black Kingdoms canoes are often carved and painted brightly with symbols relating to the tribes they belong to, whereas those of the folk of the Westermarck are more functional.</p><p>A canoe may have a sail.</p>"
			},
			"notes": ""
		},
		"grouping": {
			"baseActorId": null,
			"memberImage": null,
			"memberName": null,
			"members": [
			],
			"type": null
		},
		"health": {
			"courage": 0,
			"mental": {
				"bonus": 0,
				"max": 7,
				"min": 0,
				"traumas": {
					"max": 1,
					"min": 0,
					"value": 0
				},
				"value": 7
			},
			"physical": {
				"bonus": 0,
				"fatigue": 0,
				"max": 3,
				"min": 0,
				"value": 3,
				"wounds": {
					"max": 1,
					"min": 0,
					"value": 0
				}
			}
		},
		"impactDamage": 1,
		"maneuever": 0,
		"maneuver": 1,
		"momentum": 0,
		"passengers": {
			"max": 1,
			"value": 0
		},
		"sailingRange": 1,
		"stowage": {
			"max": 50,
			"value": 0
		},
		"tags": {
			"value": [
				"agile",
				"light_craft",
				"portage"
			]
		}
	},
	"type": "watercraft"
}
