{
	"_id": "uN60CYmra3GdP6uR",
	"_key": "!actors.items!pdjmhL5lPLzxJ0vn.uN60CYmra3GdP6uR",
	"effects": [
	],
	"folder": null,
	"img": "systems/conan2d20/assets/icons/compendiums/icon-weapon.png",
	"name": "Hooves",
	"system": {
		"attackType": "melee",
		"crew": 0,
		"damage": {
			"dice": 4,
			"type": "physical"
		},
		"description": {
			"source": {
				"book": "coreRulebook",
				"page": 1
			},
			"value": ""
		},
		"qualities": {
			"value": [
				{
					"type": "stun",
					"value": null
				}
			]
		},
		"range": 1,
		"size": ""
	},
	"type": "npcattack"
}
