{
	"_id": "a18EzTVs5euGVsbR",
	"_key": "!actors!a18EzTVs5euGVsbR",
	"effects": [
	],
	"folder": "06IMPOCwvIopScIz",
	"img": "systems/conan2d20/assets/tokens/conan-default-actor-purple.webp",
	"items": [
	],
	"name": "Llama",
	"prototypeToken": {
		"actorLink": true,
		"alpha": 1,
		"appendNumber": false,
		"bar1": {
			"attribute": "health.physical"
		},
		"bar2": {
			"attribute": "health.mental"
		},
		"detectionModes": [
		],
		"displayBars": 0,
		"displayName": 0,
		"disposition": 0,
		"flags": {
		},
		"height": 1,
		"hexagonalShape": 0,
		"light": {
			"alpha": 0.5,
			"angle": 360,
			"animation": {
				"intensity": 5,
				"reverse": false,
				"speed": 5,
				"type": null
			},
			"attenuation": 0.5,
			"bright": 0,
			"color": null,
			"coloration": 1,
			"contrast": 0,
			"darkness": {
				"max": 1,
				"min": 0
			},
			"dim": 0,
			"luminosity": 0.5,
			"negative": false,
			"priority": 0,
			"saturation": 0,
			"shadows": 0
		},
		"lockRotation": false,
		"name": "Llama",
		"occludable": {
			"radius": 0
		},
		"prependAdjective": false,
		"randomImg": false,
		"ring": {
			"colors": {
				"background": null,
				"ring": null
			},
			"effects": 0,
			"enabled": false,
			"subject": {
				"scale": 1,
				"texture": null
			}
		},
		"rotation": 0,
		"sight": {
			"angle": 360,
			"attenuation": 0.1,
			"brightness": 0,
			"color": null,
			"contrast": 0,
			"enabled": true,
			"range": 0,
			"saturation": 0,
			"visionMode": "basic"
		},
		"texture": {
			"alphaThreshold": 0.75,
			"anchorX": 0.5,
			"anchorY": 0.5,
			"fit": "contain",
			"offsetX": 0,
			"offsetY": 0,
			"rotation": 0,
			"scaleX": 1,
			"scaleY": 1,
			"src": "systems/conan2d20/assets/tokens/conan-default-actor-purple.webp",
			"tint": "#ffffff"
		},
		"width": 1
	},
	"system": {
		"animals": 0,
		"armor": 0,
		"attributes": {
			"agi": {
				"inhuman": 0,
				"value": 7
			},
			"awa": {
				"inhuman": 0,
				"value": 7
			},
			"bra": {
				"inhuman": 0,
				"value": 7
			},
			"coo": {
				"inhuman": 0,
				"value": 7
			},
			"int": {
				"inhuman": 0,
				"value": 7
			},
			"per": {
				"inhuman": 0,
				"value": 7
			},
			"wil": {
				"inhuman": 0,
				"value": 7
			}
		},
		"availability": 2,
		"cost": 8,
		"details": {
			"biography": {
				"public": false,
				"value": ""
			},
			"notes": ""
		},
		"grouping": {
			"baseActorId": null,
			"memberImage": null,
			"memberName": null,
			"members": [
			],
			"type": null
		},
		"health": {
			"courage": 0,
			"mental": {
				"bonus": 0,
				"max": 7,
				"min": 0,
				"traumas": {
					"max": 1,
					"min": 0,
					"value": 0
				},
				"value": 7
			},
			"physical": {
				"bonus": 0,
				"fatigue": 0,
				"max": 7,
				"min": 0,
				"value": 7,
				"wounds": {
					"max": 1,
					"min": 0,
					"value": 0
				}
			}
		},
		"momentum": 0,
		"passengers": {
			"max": 1,
			"value": 0
		},
		"skills": {
			"cmb": {
				"value": null
			},
			"frt": {
				"value": null
			},
			"knw": {
				"value": null
			},
			"mov": {
				"value": null
			},
			"scl": {
				"value": null
			},
			"sns": {
				"value": null
			}
		},
		"stowage": {
			"max": 13,
			"value": 0
		},
		"tags": {
			"value": [
				"mount",
				"pack"
			]
		},
		"type": "minion"
	},
	"type": "mount"
}
