{
	"_id": "HnhjlqzVFiGPws3f",
	"_key": "!items!HnhjlqzVFiGPws3f",
	"effects": [
	],
	"folder": "iNVF58zggkvFEw0I",
	"img": "systems/conan2d20/assets/icons/compendiums/icon-action-free.png",
	"name": "Adjust",
	"system": {
		"actionType": "free",
		"description": {
			"source": {
				"book": "coreRulebook",
				"page": 113
			},
			"value": "<p>The character can make a small change of position. The&nbsp;character moves to any point within Close range, including&nbsp;into or out of Reach, unless that movement would require&nbsp;a skill test with a Difficulty of Average (D1) or higher. This&nbsp;is a Movement action.</p>"
		},
		"isMovementAction": true
	},
	"type": "action"
}
