{
	"_id": "LJyBANPx39bsLjjr",
	"_key": "!items!LJyBANPx39bsLjjr",
	"effects": [
	],
	"folder": "BEDDWgN3ogCVjBka",
	"img": "systems/conan2d20/assets/icons/compendiums/icon-action-standard.png",
	"name": "Attack",
	"system": {
		"actionType": "standard",
		"description": {
			"source": {
				"book": "coreRulebook",
				"page": 115
			},
			"value": "<p>There are multiple methods of attacking an enemy: Melee,&nbsp;Ranged, and Threaten being the normal ways. The type of&nbsp;attack determines the skill used and the tools or techniques&nbsp;available to inflict harm.</p><p>See Making an Attack on page 117 for more information.</p>"
		},
		"isMovementAction": false
	},
	"type": "action"
}
