{
	"_id": "B3qggKOIHCd6e5p5",
	"_key": "!items!B3qggKOIHCd6e5p5",
	"effects": [
	],
	"folder": "2y253tBShMbqfQEQ",
	"img": "systems/conan2d20/assets/icons/compendiums/icon-action-minor.png",
	"name": "Draw Item",
	"system": {
		"actionType": "minor",
		"description": {
			"source": {
				"book": "coreRulebook",
				"page": 114
			},
			"value": "<p>Using a free hand, the character may pick up an item within&nbsp;Reach, or draw a weapon or other item carried on his person/stowed in his gear. If the item does not require a skill test&nbsp;to use, it can be used immediately upon taking this action,&nbsp;allowing a character to draw and use the item with only&nbsp;one Minor Action.</p>"
		},
		"isMovementAction": false
	},
	"type": "action"
}
