{
	"_id": "RR6buXS0KofjJUsz",
	"_key": "!items!RR6buXS0KofjJUsz",
	"effects": [
	],
	"folder": "BEDDWgN3ogCVjBka",
	"img": "systems/conan2d20/assets/icons/compendiums/icon-action-standard.png",
	"name": "Pass",
	"system": {
		"actionType": "standard",
		"description": {
			"source": {
				"book": "coreRulebook",
				"page": 116
			},
			"value": "<p>The character may choose to spend their Standard Action&nbsp;doing nothing. This still uses the character&rsquo;s Standard&nbsp;Action for that turn.</p>"
		},
		"isMovementAction": false
	},
	"type": "action"
}
