{
	"_id": "Vgsy7hn5hI4Mz7zM",
	"_key": "!items!Vgsy7hn5hI4Mz7zM",
	"effects": [
	],
	"folder": "BEDDWgN3ogCVjBka",
	"img": "systems/conan2d20/assets/icons/compendiums/icon-action-standard.png",
	"name": "Sprint",
	"system": {
		"actionType": "standard",
		"description": {
			"source": {
				"book": "coreRulebook",
				"page": 116
			},
			"value": "<p>The character may move to any point in Long range.</p><p>Sprinting takes up a lot of the character&rsquo;s attention and&nbsp;prevents concentration on other matters, increasing the&nbsp;Difficulty of all skill tests attempted until the start of the&nbsp;next turn, with the exception of tests made for the Defense Reaction. This is a Movement Action.</p>"
		},
		"isMovementAction": true
	},
	"type": "action"
}
