{
	"_id": "m0PYOgTCz92SuRpi",
	"_key": "!items!m0PYOgTCz92SuRpi",
	"effects": [
	],
	"folder": "BEDDWgN3ogCVjBka",
	"img": "systems/conan2d20/assets/icons/compendiums/icon-action-standard.png",
	"name": "Treatment",
	"system": {
		"actionType": "standard",
		"description": {
			"source": {
				"book": "coreRulebook",
				"page": 116
			},
			"value": "<p>The character tries to aid an ally. The character nominates&nbsp;a character within Reach, chooses a single type of damage&nbsp;(physical or mental), and attempts a skill test, using Healing&nbsp;for physical damage and Counsel for mental damage. The&nbsp;Difficulty of the test is equal to the number of Harms of&nbsp;that type the ally is suffering from, or Average (D1). On&nbsp;a successful test, the character regains 3 points of Vigor&nbsp;(physical) or 3 points of Resolve (mental) plus 3 points more&nbsp;for each Momentum spent (Repeatable).</p><p>Recovering mental damage can be done at distances&nbsp;greater than Reach, but with increasing Difficulty.&nbsp;Recovering the Resolve of an ally at range increases the&nbsp;Difficulty by one step at Close range, and one step more&nbsp;for each range category beyond Close.</p>"
		},
		"isMovementAction": false
	},
	"type": "action"
}
