{
	"_id": "IbtSFRobvqPHA4BG",
	"_key": "!items!IbtSFRobvqPHA4BG",
	"effects": [
	],
	"folder": "ppdFczywg7VCIDZb",
	"img": "systems/conan2d20/assets/icons/compendiums/icon-talent-books.png",
	"name": "Blood Feud",
	"system": {
		"description": {
			"source": {
				"book": "coreRulebook",
				"page": 27
			},
			"value": "<p><span class=\"fontstyle0\">The insult is deep. So deep that blood may not settle the debt it has incurred. Though the one who gave offense was banished, theirs was merely the most egregious of the insults and accusations heaped upon you and yours. There is only one solution: a blood feud. It matters not whether it was called by your enemies or your allies. The only things that matter are who your enemies are, and who will survive?</span> </p>"
		},
		"trait": "Feud"
	},
	"type": "story"
}
