{
	"_id": "gLKL4uurhaIohVik",
	"_key": "!items!gLKL4uurhaIohVik",
	"effects": [
	],
	"folder": "Hh3ifwoH49fmpH1R",
	"img": "systems/conan2d20/assets/icons/compendiums/icon-talent-books.png",
	"name": "Famine",
	"system": {
		"description": {
			"source": {
				"book": "coreRulebook",
				"page": 24
			},
			"value": "<p><span class=\"fontstyle0\">When the crops were gone, you ate the beasts of the forest. Then you killed and shared the beasts that worked your fields. As water became a luxury, some in your village looked at the soft flesh of the masters and contemplated a different type of prey. As the knife sunk deep into the landowner&rsquo;s agent, </span><span class=\"fontstyle0\">rain began to fall. You looked on in horror, as desperation revealed its ugliest side. You were forced to ask yourself the hardest question. How hungry were you?</span> </p>"
		},
		"trait": "Cannibal"
	},
	"type": "story"
}
