{
	"_id": "vUpEnqRmr5JspDNH",
	"_key": "!items!vUpEnqRmr5JspDNH",
	"effects": [
	],
	"folder": "ABsNB0Am4psCi1JE",
	"img": "systems/conan2d20/assets/icons/compendiums/icon-talent-books.png",
	"name": "Idle Hours Guarding Cold Walls",
	"system": {
		"description": {
			"source": {
				"book": "coreRulebook",
				"page": 28
			},
			"value": "<p><span class=\"fontstyle0\">Your home was less-than-inviting to strangers. Most were greeted with spear points and sling stones. Soon the word spread and few travelers made the journey. You spent many hours drinking swill and rolling dice for petty coin. Eventually even these pursuits grew stale and you were forced to find your own entertainments. How did you survive the boredom? What pursuits did you engage in? <br></span></p>"
		},
		"trait": "Hedonist"
	},
	"type": "story"
}
