{
	"_id": "QdZ0CfuYBDH1Cwn9",
	"_key": "!items!QdZ0CfuYBDH1Cwn9",
	"effects": [
	],
	"folder": null,
	"img": "systems/conan2d20/assets/icons/compendiums/icon-talent-books.png",
	"name": "Gained (and Lost) a Great Treasure",
	"system": {
		"description": {
			"source": {
				"book": "coreRulebook",
				"page": 1
			},
			"value": ""
		},
		"skills": {
			"choices": [
				"obs",
				"soc"
			]
		}
	},
	"type": "warstory"
}
