{
	"_id": "dA2ubk5tQLTWRQGG",
	"_key": "!items!dA2ubk5tQLTWRQGG",
	"effects": [
	],
	"folder": "8th2O3wQcinrSUO2",
	"img": "systems/conan2d20/assets/icons/compendiums/icon-tools.png",
	"name": "Appropriate Clothing (by region/season)",
	"system": {
		"availability": "1",
		"broken": false,
		"consume": {
			"amount": null,
			"target": null,
			"type": ""
		},
		"cost": 2,
		"description": {
			"source": {
				"book": "coreRulebook",
				"page": 0
			},
			"value": ""
		},
		"encumbrance": 1,
		"equipped": false,
		"hideInInventory": false,
		"kitType": "tool",
		"quantity": 1,
		"skill": "ste",
		"stowedIn": "",
		"uses": {
			"max": "1",
			"value": 1
		}
	},
	"type": "kit"
}
