{
	"_id": "N72BcAnfq5pCM5bd",
	"_key": "!items!N72BcAnfq5pCM5bd",
	"effects": [
	],
	"folder": "3QfHFNsrDNOkKB4k",
	"img": "systems/conan2d20/assets/icons/compendiums/icon-armor.png",
	"name": "Brigandine Left Legging",
	"system": {
		"armorType": "lightArmor",
		"availability": "2",
		"broken": false,
		"cost": 2,
		"coverage": {
			"value": [
				"lleg"
			]
		},
		"description": {
			"source": {
				"book": "coreRulebook",
				"page": 155
			},
			"value": "<p>Brigandine Left Legging (Armor:2).</p>\n<p> Offers coverage for a single limb.</p></p>\n<p>—"
		},
		"encumbrance": "1",
		"equipped": false,
		"hideInInventory": false,
		"qualities": {
			"value": [
			]
		},
		"quantity": 1,
		"soak": 2,
		"stowedIn": ""
	},
	"type": "armor"
}
