{
	"_id": "OoT6i1wWv48qtDkV",
	"_key": "!items!OoT6i1wWv48qtDkV",
	"effects": [
	],
	"folder": "3QfHFNsrDNOkKB4k",
	"img": "systems/conan2d20/assets/icons/compendiums/icon-armor.png",
	"name": "Cuirass",
	"system": {
		"armorType": "veryHeavyArmor",
		"availability": 4,
		"broken": false,
		"cost": 8,
		"coverage": {
			"value": [
				"torso"
			]
		},
		"description": {
			"source": {
				"book": "coreRulebook",
				"page": 155
			},
			"value": "<p>Cuirass (Armor:4).</p>\n<p> </p></p>\n<p>vheavy"
		},
		"encumbrance": 3,
		"equipped": false,
		"hideInInventory": false,
		"qualities": {
			"value": [
				{
					"type": "vheavy",
					"value": ""
				}
			]
		},
		"quantity": 1,
		"soak": 4,
		"stowedIn": ""
	},
	"type": "armor"
}
