{
	"_id": "6I8gcVu2MtNswv0U",
	"_key": "!items!6I8gcVu2MtNswv0U",
	"effects": [
	],
	"folder": "8HDI3kfalZcsy4xA",
	"img": "systems/conan2d20/assets/icons/compendiums/icon-tools.png",
	"name": "Day Bag (by region)",
	"system": {
		"availability": "1",
		"broken": false,
		"consume": {
			"amount": null,
			"target": null,
			"type": ""
		},
		"cost": 1,
		"description": {
			"source": {
				"book": "coreRulebook",
				"page": 0
			},
			"value": ""
		},
		"encumbrance": 1,
		"equipped": false,
		"hideInInventory": false,
		"kitType": "kit",
		"quantity": 1,
		"skill": "sur",
		"stowedIn": "",
		"uses": {
			"max": "1",
			"value": 1
		}
	},
	"type": "kit"
}
