{
	"_id": "dmj6WSjNtDYCmwlt",
	"_key": "!items!dmj6WSjNtDYCmwlt",
	"effects": [
	],
	"folder": "dL8WFZOhr4x4oLdn",
	"img": "systems/conan2d20/assets/icons/compendiums/icon-armor.png",
	"name": "Heavy Cape",
	"system": {
		"armorType": "heavyCloth",
		"availability": 1,
		"broken": false,
		"cost": 1,
		"coverage": {
			"value": [
				"lleg",
				"rleg",
				"torso"
			]
		},
		"description": {
			"source": {
				"book": "coreRulebook",
				"page": 155
			},
			"value": ""
		},
		"encumbrance": 1,
		"equipped": false,
		"hideInInventory": false,
		"qualities": {
			"value": [
			]
		},
		"quantity": 1,
		"soak": 1,
		"stowedIn": ""
	},
	"type": "armor"
}
