{
	"_id": "ldg29UJ1sdPoRDTe",
	"_key": "!items!ldg29UJ1sdPoRDTe",
	"effects": [
	],
	"folder": "tdoe0YdJ9dM71oBe",
	"img": "systems/conan2d20/assets/icons/compendiums/icon-tools.png",
	"name": "Outpost (by region)",
	"system": {
		"availability": "2",
		"broken": false,
		"consume": {
			"amount": null,
			"target": null,
			"type": ""
		},
		"cost": 8,
		"description": {
			"source": {
				"book": "coreRulebook",
				"page": 0
			},
			"value": ""
		},
		"encumbrance": 0,
		"equipped": false,
		"hideInInventory": false,
		"kitType": "facility",
		"quantity": 1,
		"skill": "sur",
		"stowedIn": "",
		"uses": {
			"max": "1",
			"value": 0
		}
	},
	"type": "kit"
}
