{
	"_id": "7IiLtF8aipd0PnWj",
	"_key": "!items!7IiLtF8aipd0PnWj",
	"effects": [
	],
	"folder": "dL8WFZOhr4x4oLdn",
	"img": "systems/conan2d20/assets/icons/compendiums/icon-armor.png",
	"name": "Padded Gambeson and Trousers",
	"system": {
		"armorType": "heavyCloth",
		"availability": 1,
		"broken": false,
		"cost": 3,
		"coverage": {
			"value": [
				"larm",
				"lleg",
				"rarm",
				"rleg",
				"torso"
			]
		},
		"description": {
			"source": {
				"book": "coreRulebook",
				"page": 155
			},
			"value": "<p>Padded gambeson and trousers (Armor:1).</p>\n<p> </p></p>\n<p>"
		},
		"encumbrance": 2,
		"equipped": false,
		"hideInInventory": false,
		"qualities": {
			"value": [
			]
		},
		"quantity": 1,
		"soak": 1,
		"stowedIn": ""
	},
	"type": "armor"
}
