{
	"_id": "4YtzZ71prOcQkGHh",
	"_key": "!items!4YtzZ71prOcQkGHh",
	"effects": [
	],
	"folder": "VWi3FDnFenMzulzZ",
	"img": "systems/conan2d20/assets/icons/compendiums/icon-weapon.png",
	"name": "Pickaxe",
	"system": {
		"availability": 1,
		"broken": false,
		"cost": 4,
		"crew": 0,
		"damage": {
			"dice": 5,
			"type": "physical"
		},
		"description": {
			"source": {
				"book": "coreRulebook",
				"page": 0
			},
			"value": ""
		},
		"encumbrance": 1,
		"equipped": false,
		"hideInInventory": false,
		"qualities": {
			"value": [
				{
					"type": "improvised",
					"value": ""
				},
				{
					"type": "viciousx",
					"value": "1"
				}
			]
		},
		"quantity": 1,
		"range": 2,
		"shots": 1,
		"size": "twoHanded",
		"skillOverride": "",
		"stowedIn": "",
		"weaponType": "melee"
	},
	"type": "weapon"
}
