{
	"_id": "JKrORBqZd3d1bOso",
	"_key": "!items!JKrORBqZd3d1bOso",
	"effects": [
	],
	"folder": "VWi3FDnFenMzulzZ",
	"img": "systems/conan2d20/assets/icons/compendiums/icon-weapon.png",
	"name": "Scimitar",
	"system": {
		"availability": 1,
		"broken": false,
		"cost": 5,
		"crew": 0,
		"damage": {
			"dice": 3,
			"type": "physical"
		},
		"description": {
			"source": {
				"book": "coreRulebook",
				"page": 0
			},
			"value": ""
		},
		"encumbrance": "1",
		"equipped": false,
		"hideInInventory": false,
		"qualities": {
			"value": [
				{
					"type": "cavalryx",
					"value": "1"
				},
				{
					"type": "parrying",
					"value": ""
				}
			]
		},
		"quantity": 1,
		"range": "2",
		"shots": 1,
		"size": "oneHanded",
		"skillOverride": "",
		"stowedIn": "",
		"weaponType": "melee"
	},
	"type": "weapon"
}
