{
	"_id": "K9mzi2fa5djEwNKt",
	"_key": "!items!K9mzi2fa5djEwNKt",
	"effects": [
	],
	"folder": "DcUBzT2igfNvypKO",
	"img": "systems/conan2d20/assets/icons/compendiums/icon-weapon.png",
	"name": "War Bow",
	"system": {
		"availability": 1,
		"broken": false,
		"cost": 7,
		"crew": 0,
		"damage": {
			"dice": 3,
			"type": "physical"
		},
		"description": {
			"source": {
				"book": "coreRulebook",
				"page": 0
			},
			"value": ""
		},
		"encumbrance": 2,
		"equipped": false,
		"hideInInventory": false,
		"qualities": {
			"value": [
				{
					"type": "piercingx",
					"value": 1
				},
				{
					"type": "volley",
					"value": null
				}
			]
		},
		"quantity": 1,
		"range": "long",
		"shots": 1,
		"size": "twoHanded",
		"skillOverride": "",
		"stowedIn": "",
		"weaponType": "ranged"
	},
	"type": "weapon"
}
