{
	"_id": "oah7bVuWj0NBHOIO",
	"_key": "!macros!oah7bVuWj0NBHOIO",
	"author": "2G1niAvKvEFy7eI2",
	"command": "/**\n ***************************************************************\n * This macro can be used to roll an arbitrary amount of Combat\n * Dice for a Morale check and includes selectable presets\n * supported by the core rules.\n *\n * @param {string} [itemName] Name of the item being used for\n *                            the Soak roll.\n *\n * @param {number} [soak]     The amount of Combat Dice of Soak\n *                            provided by the item.\n *\n * @example\n * game.conan2d20.macros.moraleSoakDiceRoll();\n *\n * @example\n * game.conan2d20.macros.moraleSoakDiceRoll(\"Totem\", 3);\n *\n * NOTE: This macro is basically a wrapper around the\n * soakDiceRoll macro.\n **************************************************************/\n\ngame.conan2d20.macros.moraleSoakDiceRoll();",
	"folder": null,
	"img": "icons/svg/dice-target.svg",
	"name": "Morale Soak Roll",
	"scope": "global",
	"type": "script"
}
