{
	"_id": "982wmedHJfvFWn7i",
	"_key": "!items!982wmedHJfvFWn7i",
	"effects": [
	],
	"folder": null,
	"img": "systems/conan2d20/assets/icons/compendiums/icon-talent-books.png",
	"name": "Warrior-Born",
	"system": {
		"description": {
			"source": {
				"book": "coreRulebook",
				"page": 17
			},
			"value": ""
		},
		"mandatoryAttribute": {
			"choices": [
				"awa",
				"bra"
			]
		},
		"optionalAttribute": {
			"choices": [
				"agi",
				"coo"
			]
		}
	},
	"type": "aspect"
}
