{
	"_id": "XVbTROqnUamyrDoq",
	"_key": "!scenes!XVbTROqnUamyrDoq",
	"active": false,
	"background": {
		"alphaThreshold": 0,
		"anchorX": 0,
		"anchorY": 0,
		"fit": "fill",
		"offsetX": 0,
		"offsetY": 0,
		"rotation": 0,
		"scaleX": 1,
		"scaleY": 1,
		"src": "systems/conan2d20/assets/maps/The_Lands_of_Hyboria_r5_7134x5079_75pc_FULL.webp",
		"tint": "#ffffff"
	},
	"backgroundColor": "#000000",
	"drawings": [
	],
	"environment": {
		"base": {
			"hue": 0,
			"intensity": 0,
			"luminosity": 0,
			"saturation": 0,
			"shadows": 0
		},
		"cycle": true,
		"dark": {
			"hue": 0.7416666666666667,
			"intensity": 0.35,
			"luminosity": -0.1,
			"saturation": 0,
			"shadows": 0.2
		},
		"darknessLevel": 0,
		"darknessLock": false,
		"globalLight": {
			"alpha": 0.5,
			"bright": false,
			"color": null,
			"coloration": 1,
			"contrast": 0,
			"darkness": {
				"max": 1,
				"min": 0
			},
			"enabled": false,
			"luminosity": 0,
			"saturation": 0,
			"shadows": 0
		}
	},
	"fog": {
		"colors": {
			"explored": null,
			"unexplored": null
		},
		"exploration": false,
		"overlay": null,
		"reset": 1684253599088
	},
	"folder": null,
	"foreground": null,
	"foregroundElevation": 20,
	"grid": {
		"alpha": 0.8322,
		"color": "#000000",
		"distance": 60,
		"size": 90,
		"style": "solidLines",
		"thickness": 1,
		"type": 2,
		"units": "miles"
	},
	"height": 5079,
	"initial": {
		"scale": null,
		"x": null,
		"y": null
	},
	"journal": null,
	"journalEntryPage": null,
	"lights": [
	],
	"name": "Lands of the Hyborian Age (Full)",
	"navName": "",
	"navOrder": 0,
	"navigation": true,
	"notes": [
	],
	"padding": 0,
	"playlist": null,
	"playlistSound": null,
	"regions": [
	],
	"sounds": [
	],
	"templates": [
	],
	"thumb": "systems/conan2d20/assets/scenes/XVbTROqnUamyrDoq-thumb.webp",
	"tiles": [
	],
	"tokenVision": false,
	"tokens": [
	],
	"walls": [
	],
	"weather": "",
	"width": 7134
}
