{
	"_id": "EW3lEMCpwfPCuNFP",
	"_key": "!items!EW3lEMCpwfPCuNFP",
	"effects": [
	],
	"folder": null,
	"img": "systems/conan2d20/assets/icons/compendiums/icon-talent-books.png",
	"name": "Archer",
	"system": {
		"careerSkill": {
			"choices": [
				"ran"
			]
		},
		"careerTalent": {
			"choices": [
				"Compendium.conan2d20.talents-core.Item.bU7P46fQu4Yyg8Rz"
			]
		},
		"description": {
			"source": {
				"book": "coreRulebook",
				"page": 30
			},
			"value": "<p>Whether trained alongside the legendary Bossonian archers, within one of the militaries of the great middle kingdoms, or even skilled in Hyrkanian horse archery, you are now a practiced archer, capable of sending iron-tipped shafts across great distances with accuracy.</p>\n<h3>Equipment</h3>\n<p><span class=\"fontstyle0\">The character begins with an assortment of appropriate gear.</span></p>\n<ul>\n<li>Bow and reloads (2)</li>\n<li><span class=\"fontstyle0\">Choice of one of the following: a </span>@UUID[Compendium.conan2d20.belongings-core.7IiLtF8aipd0PnWj]{Padded Gambeson and Trousers}; a @UUID[Compendium.conan2d20.belongings-core.lHmhYjITdyZ73JZg]{Brigandine Vest and Trousers}; or a @UUID[Compendium.conan2d20.belongings-core.rPfOVJI43lw9fOVT]{Mail Vest}</li>\n<li>@UUID[Compendium.conan2d20.belongings-core.LrRccdC0N4DnU3Zk]{Helmet}</li>\n<li>Melee weapon of choice</li>\n<li>A riding horse or donkey</li>\n</ul>"
		},
		"electiveSkill": {
			"choices": [
				"acr",
				"ath",
				"mel"
			]
		},
		"equipment": [
		],
		"equipmentChoices": [
		],
		"mandatorySkill": {
			"choices": [
				"ani",
				"obs",
				"ste",
				"sur"
			]
		}
	},
	"type": "archetype"
}
