{
	"_id": "69YycEZwLFQtfhyt",
	"_key": "!items!69YycEZwLFQtfhyt",
	"effects": [
	],
	"folder": null,
	"img": "systems/conan2d20/assets/icons/compendiums/icon-talent-books.png",
	"name": "Scholar",
	"system": {
		"careerSkill": {
			"choices": [
				"lor"
			]
		},
		"careerTalent": {
			"choices": [
				"Compendium.conan2d20.talents-core.Item.zb1Pnd2263rN08sW"
			]
		},
		"description": {
			"source": {
				"book": "coreRulebook",
				"page": 33
			},
			"value": "<p>You have explored the breadth of history and human knowledge from the vantage point of a chair, spending hours poring over thick tomes of lore. Your interest may be specific to a particular field of study, or you may have broad expertise in a variety of subjects. Despite your inclination towards scholarship, you have ventured into the world outside your studies, to experience the world firsthand.</p>\n<h3>Equipment</h3>\n<p><span class=\"fontstyle0\">The character begins with an assortment of appropriate gear.</span></p>\n<ul>\n<li><span class=\"fontstyle0\">A melee or ranged weapon of choice</span></li>\n<li><span class=\"fontstyle0\">Several sets of plain travelling clothes and a suit of courtly clothing</span></li>\n<li><span class=\"fontstyle0\">A plethora of writing materials, including vellum or papyrus scrolls and books</span></li>\n<li><span class=\"fontstyle0\">Horse and baggage mule</span></li>\n<li><span class=\"fontstyle0\">Appropriate tools for all mandatory and elective skills</span></li>\n<li><span class=\"fontstyle0\">A small personal library of choice volumes and reference materials</span></li>\n</ul>"
		},
		"electiveSkill": {
			"choices": [
				"alc",
				"hea",
				"sor"
			]
		},
		"equipment": [
		],
		"equipmentChoices": [
		],
		"mandatorySkill": {
			"choices": [
				"ani",
				"lin",
				"per",
				"soc"
			]
		}
	},
	"type": "archetype"
}
